<?xml version="1.0" encoding="utf-8"?>
<!-- Generator: Adobe Illustrator 22.0.1, SVG Export Plug-In . SVG Version: 6.00 Build 0)  -->
<svg version="1.1" id="Layer_1" xmlns="http://www.w3.org/2000/svg" xmlns:xlink="http://www.w3.org/1999/xlink" x="0px" y="0px"
	 viewBox="0 0 597.3 376.7" style="enable-background:new 0 0 597.3 376.7;" xml:space="preserve">
<style type="text/css">
	.st0{fill:#FFFFFF;}
	.st1{opacity:0.251;fill:none;stroke:#1A1A1A;stroke-width:0.5;stroke-linejoin:bevel;stroke-miterlimit:1;stroke-dasharray:1,3;}
	.st2{opacity:0.149;fill:none;stroke:#262626;stroke-width:0.5;stroke-linejoin:bevel;stroke-miterlimit:1;stroke-dasharray:1,3;}
	.st3{fill:none;stroke:#262626;stroke-width:0.5;stroke-linecap:square;stroke-linejoin:round;stroke-miterlimit:10;}
	.st4{fill:#262626;}
	.st5{font-family:'Helvetica';}
	.st6{font-size:15px;}
	.st7{font-size:12px;}
	.st8{font-size:20px;}
	.st9{fill:none;stroke:#0072BD;stroke-width:2;stroke-linejoin:round;stroke-miterlimit:10;}
	.st10{fill:none;stroke:#D95319;stroke-width:2;stroke-linejoin:round;stroke-miterlimit:10;}
	.st11{fill:none;stroke:#D95319;stroke-width:2;stroke-miterlimit:10;}
	.st12{fill:none;stroke:#EDB120;stroke-width:2;stroke-linejoin:round;stroke-miterlimit:10;}
	.st13{fill:none;stroke:#EDB120;stroke-width:2;stroke-miterlimit:10;}
	.st14{fill:none;stroke:#7E2F8E;stroke-width:2;stroke-linejoin:round;stroke-miterlimit:10;}
	.st15{fill:none;stroke:#7E2F8E;stroke-width:2;stroke-miterlimit:10;}
	.st16{fill:none;stroke:#77AC30;stroke-width:2;stroke-linejoin:round;stroke-miterlimit:10;}
	.st17{fill:none;stroke:#77AC30;stroke-width:2;stroke-miterlimit:10;}
	.st18{fill:none;stroke:#4DBEEE;stroke-width:2;stroke-linejoin:round;stroke-miterlimit:10;}
	.st19{fill:none;stroke:#4DBEEE;stroke-width:2;stroke-miterlimit:10;}
	.st20{fill:none;stroke:#262626;stroke-width:0.5;stroke-miterlimit:10;}
</style>
<rect x="53.4" y="75.7" class="st0" width="232" height="232"/>
<line class="st1" x1="53.4" y1="307.7" x2="53.4" y2="75.7"/>
<line class="st1" x1="72.7" y1="307.7" x2="72.7" y2="75.7"/>
<line class="st1" x1="84" y1="307.7" x2="84" y2="75.7"/>
<line class="st1" x1="92" y1="307.7" x2="92" y2="75.7"/>
<line class="st1" x1="98.2" y1="307.7" x2="98.2" y2="75.7"/>
<line class="st1" x1="103.3" y1="307.7" x2="103.3" y2="75.7"/>
<line class="st1" x1="107.6" y1="307.7" x2="107.6" y2="75.7"/>
<line class="st1" x1="111.3" y1="307.7" x2="111.3" y2="75.7"/>
<line class="st1" x1="114.6" y1="307.7" x2="114.6" y2="75.7"/>
<line class="st1" x1="136.8" y1="307.7" x2="136.8" y2="75.7"/>
<line class="st1" x1="148" y1="307.7" x2="148" y2="75.7"/>
<line class="st1" x1="156" y1="307.7" x2="156" y2="75.7"/>
<line class="st1" x1="162.3" y1="307.7" x2="162.3" y2="75.7"/>
<line class="st1" x1="167.3" y1="307.7" x2="167.3" y2="75.7"/>
<line class="st1" x1="171.6" y1="307.7" x2="171.6" y2="75.7"/>
<line class="st1" x1="175.3" y1="307.7" x2="175.3" y2="75.7"/>
<line class="st1" x1="178.6" y1="307.7" x2="178.6" y2="75.7"/>
<line class="st1" x1="181.5" y1="307.7" x2="181.5" y2="75.7"/>
<line class="st1" x1="200.8" y1="307.7" x2="200.8" y2="75.7"/>
<line class="st1" x1="212.1" y1="307.7" x2="212.1" y2="75.7"/>
<line class="st1" x1="220.1" y1="307.7" x2="220.1" y2="75.7"/>
<line class="st1" x1="226.3" y1="307.7" x2="226.3" y2="75.7"/>
<line class="st1" x1="231.4" y1="307.7" x2="231.4" y2="75.7"/>
<line class="st1" x1="235.7" y1="307.7" x2="235.7" y2="75.7"/>
<line class="st1" x1="239.4" y1="307.7" x2="239.4" y2="75.7"/>
<line class="st1" x1="242.6" y1="307.7" x2="242.6" y2="75.7"/>
<line class="st1" x1="264.9" y1="307.7" x2="264.9" y2="75.7"/>
<line class="st1" x1="276.1" y1="307.7" x2="276.1" y2="75.7"/>
<line class="st1" x1="284.1" y1="307.7" x2="284.1" y2="75.7"/>
<line class="st2" x1="117.5" y1="307.7" x2="117.5" y2="75.7"/>
<line class="st2" x1="245.6" y1="307.7" x2="245.6" y2="75.7"/>
<line class="st2" x1="285.4" y1="307.7" x2="53.4" y2="307.7"/>
<line class="st2" x1="285.4" y1="275.2" x2="53.4" y2="275.2"/>
<line class="st2" x1="285.4" y1="242.8" x2="53.4" y2="242.8"/>
<line class="st2" x1="285.4" y1="210.3" x2="53.4" y2="210.3"/>
<line class="st2" x1="285.4" y1="177.9" x2="53.4" y2="177.9"/>
<line class="st2" x1="285.4" y1="145.4" x2="53.4" y2="145.4"/>
<line class="st2" x1="285.4" y1="113" x2="53.4" y2="113"/>
<line class="st2" x1="285.4" y1="80.5" x2="53.4" y2="80.5"/>
<line class="st3" x1="53.4" y1="307.7" x2="285.4" y2="307.7"/>
<line class="st3" x1="53.4" y1="75.7" x2="285.4" y2="75.7"/>
<line class="st3" x1="117.5" y1="307.7" x2="117.5" y2="305.4"/>
<line class="st3" x1="245.6" y1="307.7" x2="245.6" y2="305.4"/>
<line class="st3" x1="117.5" y1="75.7" x2="117.5" y2="78"/>
<line class="st3" x1="245.6" y1="75.7" x2="245.6" y2="78"/>
<line class="st3" x1="53.4" y1="307.7" x2="53.4" y2="306.5"/>
<line class="st3" x1="72.7" y1="307.7" x2="72.7" y2="306.5"/>
<line class="st3" x1="84" y1="307.7" x2="84" y2="306.5"/>
<line class="st3" x1="92" y1="307.7" x2="92" y2="306.5"/>
<line class="st3" x1="98.2" y1="307.7" x2="98.2" y2="306.5"/>
<line class="st3" x1="103.3" y1="307.7" x2="103.3" y2="306.5"/>
<line class="st3" x1="107.6" y1="307.7" x2="107.6" y2="306.5"/>
<line class="st3" x1="111.3" y1="307.7" x2="111.3" y2="306.5"/>
<line class="st3" x1="114.6" y1="307.7" x2="114.6" y2="306.5"/>
<line class="st3" x1="117.5" y1="307.7" x2="117.5" y2="306.5"/>
<line class="st3" x1="136.8" y1="307.7" x2="136.8" y2="306.5"/>
<line class="st3" x1="148" y1="307.7" x2="148" y2="306.5"/>
<line class="st3" x1="156" y1="307.7" x2="156" y2="306.5"/>
<line class="st3" x1="162.3" y1="307.7" x2="162.3" y2="306.5"/>
<line class="st3" x1="167.3" y1="307.7" x2="167.3" y2="306.5"/>
<line class="st3" x1="171.6" y1="307.7" x2="171.6" y2="306.5"/>
<line class="st3" x1="175.3" y1="307.7" x2="175.3" y2="306.5"/>
<line class="st3" x1="178.6" y1="307.7" x2="178.6" y2="306.5"/>
<line class="st3" x1="181.5" y1="307.7" x2="181.5" y2="306.5"/>
<line class="st3" x1="200.8" y1="307.7" x2="200.8" y2="306.5"/>
<line class="st3" x1="212.1" y1="307.7" x2="212.1" y2="306.5"/>
<line class="st3" x1="220.1" y1="307.7" x2="220.1" y2="306.5"/>
<line class="st3" x1="226.3" y1="307.7" x2="226.3" y2="306.5"/>
<line class="st3" x1="231.4" y1="307.7" x2="231.4" y2="306.5"/>
<line class="st3" x1="235.7" y1="307.7" x2="235.7" y2="306.5"/>
<line class="st3" x1="239.4" y1="307.7" x2="239.4" y2="306.5"/>
<line class="st3" x1="242.6" y1="307.7" x2="242.6" y2="306.5"/>
<line class="st3" x1="245.6" y1="307.7" x2="245.6" y2="306.5"/>
<line class="st3" x1="264.9" y1="307.7" x2="264.9" y2="306.5"/>
<line class="st3" x1="276.1" y1="307.7" x2="276.1" y2="306.5"/>
<line class="st3" x1="284.1" y1="307.7" x2="284.1" y2="306.5"/>
<line class="st3" x1="53.4" y1="75.7" x2="53.4" y2="76.9"/>
<line class="st3" x1="72.7" y1="75.7" x2="72.7" y2="76.9"/>
<line class="st3" x1="84" y1="75.7" x2="84" y2="76.9"/>
<line class="st3" x1="92" y1="75.7" x2="92" y2="76.9"/>
<line class="st3" x1="98.2" y1="75.7" x2="98.2" y2="76.9"/>
<line class="st3" x1="103.3" y1="75.7" x2="103.3" y2="76.9"/>
<line class="st3" x1="107.6" y1="75.7" x2="107.6" y2="76.9"/>
<line class="st3" x1="111.3" y1="75.7" x2="111.3" y2="76.9"/>
<line class="st3" x1="114.6" y1="75.7" x2="114.6" y2="76.9"/>
<line class="st3" x1="117.5" y1="75.7" x2="117.5" y2="76.9"/>
<line class="st3" x1="136.8" y1="75.7" x2="136.8" y2="76.9"/>
<line class="st3" x1="148" y1="75.7" x2="148" y2="76.9"/>
<line class="st3" x1="156" y1="75.7" x2="156" y2="76.9"/>
<line class="st3" x1="162.3" y1="75.7" x2="162.3" y2="76.9"/>
<line class="st3" x1="167.3" y1="75.7" x2="167.3" y2="76.9"/>
<line class="st3" x1="171.6" y1="75.7" x2="171.6" y2="76.9"/>
<line class="st3" x1="175.3" y1="75.7" x2="175.3" y2="76.9"/>
<line class="st3" x1="178.6" y1="75.7" x2="178.6" y2="76.9"/>
<line class="st3" x1="181.5" y1="75.7" x2="181.5" y2="76.9"/>
<line class="st3" x1="200.8" y1="75.7" x2="200.8" y2="76.9"/>
<line class="st3" x1="212.1" y1="75.7" x2="212.1" y2="76.9"/>
<line class="st3" x1="220.1" y1="75.7" x2="220.1" y2="76.9"/>
<line class="st3" x1="226.3" y1="75.7" x2="226.3" y2="76.9"/>
<line class="st3" x1="231.4" y1="75.7" x2="231.4" y2="76.9"/>
<line class="st3" x1="235.7" y1="75.7" x2="235.7" y2="76.9"/>
<line class="st3" x1="239.4" y1="75.7" x2="239.4" y2="76.9"/>
<line class="st3" x1="242.6" y1="75.7" x2="242.6" y2="76.9"/>
<line class="st3" x1="245.6" y1="75.7" x2="245.6" y2="76.9"/>
<line class="st3" x1="264.9" y1="75.7" x2="264.9" y2="76.9"/>
<line class="st3" x1="276.1" y1="75.7" x2="276.1" y2="76.9"/>
<line class="st3" x1="284.1" y1="75.7" x2="284.1" y2="76.9"/>
<text transform="matrix(1 0 0 1 105.6975 331.6972)" class="st4 st5 st6">10</text>
<text transform="matrix(1 0 0 1 122.6975 324.6972)" class="st4 st5 st7">4</text>
<text transform="matrix(1 0 0 1 233.6975 331.6972)" class="st4 st5 st6">10</text>
<text transform="matrix(1 0 0 1 250.6975 324.6972)" class="st4 st5 st7">6</text>
<path class="st4" d="M162.2,344.5c0-0.1,0-0.1,0-0.2l1.5-6c0.1-0.4,0.1-0.7,0.1-1c0-0.6-0.2-0.9-0.6-0.9c-0.4,0-0.7,0.2-0.9,0.8
	s-0.4,1.1-0.6,1.9c0,0,0,0.1-0.1,0.1c0,0-0.1,0-0.1,0h-0.2c0,0-0.1,0-0.1-0.1c0,0-0.1-0.1-0.1-0.1c0.1-0.6,0.3-1.1,0.4-1.5
	c0.1-0.4,0.3-0.8,0.6-1.1c0.3-0.3,0.6-0.5,1.1-0.5c0.5,0,0.9,0.2,1.3,0.5c0.4,0.3,0.6,0.7,0.6,1.2c0.4-0.5,0.9-0.9,1.4-1.2
	c0.5-0.3,1.1-0.5,1.7-0.5c0.6,0,1.2,0.2,1.6,0.5c0.5,0.3,0.7,0.8,0.7,1.4c0.4-0.6,0.9-1,1.4-1.4c0.6-0.3,1.2-0.5,1.8-0.5
	c0.7,0,1.2,0.2,1.7,0.6s0.6,0.9,0.6,1.6c0,0.6-0.1,1.2-0.4,2c-0.2,0.8-0.5,1.6-0.9,2.6c-0.2,0.5-0.3,0.9-0.3,1.2
	c0,0.4,0.2,0.6,0.5,0.6c0.5,0,1-0.3,1.3-0.8s0.6-1.2,0.7-1.8c0-0.1,0.1-0.1,0.2-0.1h0.2c0.1,0,0.1,0,0.1,0.1c0,0,0,0.1,0,0.1
	c0,0,0,0,0,0c-0.2,0.8-0.5,1.5-0.9,2.1c-0.5,0.6-1,1-1.7,1c-0.5,0-0.9-0.2-1.2-0.5c-0.3-0.3-0.5-0.7-0.5-1.2c0-0.2,0.1-0.5,0.2-0.8
	c0.4-1,0.7-1.9,0.9-2.7c0.2-0.8,0.4-1.5,0.4-2.1c0-0.4-0.1-0.7-0.2-1c-0.2-0.3-0.4-0.4-0.7-0.4c-0.7,0-1.4,0.2-1.9,0.7
	c-0.5,0.4-1,1-1.4,1.8c0,0.1-0.1,0.2-0.1,0.3l-1.3,5.1c0,0.2-0.1,0.3-0.3,0.5c-0.2,0.1-0.3,0.2-0.5,0.2c-0.2,0-0.3-0.1-0.4-0.2
	c-0.1-0.1-0.2-0.2-0.2-0.4c0-0.1,0-0.1,0-0.2l1.3-5.1c0.1-0.6,0.2-1,0.2-1.4c0-0.4-0.1-0.7-0.2-1c-0.2-0.3-0.4-0.4-0.8-0.4
	c-0.5,0-0.9,0.1-1.3,0.3s-0.8,0.5-1.1,0.9c-0.3,0.4-0.6,0.8-0.8,1.3l-1.4,5.4c-0.1,0.2-0.2,0.3-0.3,0.5c-0.2,0.1-0.3,0.2-0.5,0.2
	c-0.2,0-0.3-0.1-0.4-0.2C162.3,344.8,162.2,344.6,162.2,344.5z"/>
<path class="st4" d="M73.6,373.8c-0.7-0.6-1.4-1.3-1.9-2c-0.5-0.8-1-1.6-1.3-2.4s-0.6-1.8-0.8-2.7s-0.3-1.9-0.3-2.8
	c0-1,0.1-1.9,0.3-2.8s0.4-1.8,0.8-2.7c0.3-0.9,0.8-1.7,1.3-2.4c0.5-0.8,1.2-1.4,1.9-2c0,0,0,0,0.1,0h0.2c0,0,0.1,0,0.1,0.1
	c0,0,0,0.1,0,0.1c0,0.1,0,0.1,0,0.1c-0.7,0.6-1.2,1.3-1.6,2.1c-0.4,0.7-0.8,1.5-1,2.3c-0.3,0.8-0.5,1.7-0.6,2.6
	c-0.1,0.9-0.2,1.8-0.2,2.8c0,4.2,1.1,7.5,3.4,9.7c0,0,0.1,0.1,0.1,0.2c0,0,0,0.1-0.1,0.1c0,0-0.1,0.1-0.1,0.1L73.6,373.8
	C73.6,373.8,73.6,373.8,73.6,373.8z"/>
<path class="st4" d="M77.6,366.8c0,0.5,0.2,0.9,0.5,1.2c0.3,0.3,0.8,0.5,1.2,0.5c0.4,0,0.8-0.1,1.2-0.3s0.6-0.5,0.8-0.9
	c0.2-0.4,0.3-0.8,0.3-1.2v-2.1c-0.6,0-1.2,0.1-1.9,0.3c-0.6,0.2-1.2,0.5-1.6,0.9S77.6,366.2,77.6,366.8z M75.9,366.8
	c0-0.8,0.3-1.4,0.9-1.9s1.4-0.9,2.2-1.1s1.7-0.3,2.5-0.3v-0.8c0-0.4-0.1-0.8-0.2-1.1c-0.2-0.4-0.4-0.7-0.7-0.9
	c-0.3-0.2-0.7-0.3-1.1-0.3c-0.9,0-1.6,0.2-2,0.6c0.2,0,0.5,0.1,0.6,0.3c0.2,0.2,0.2,0.4,0.2,0.7c0,0.3-0.1,0.5-0.3,0.7
	s-0.4,0.3-0.7,0.3c-0.3,0-0.5-0.1-0.7-0.3s-0.3-0.4-0.3-0.7c0-0.7,0.3-1.2,1-1.6s1.3-0.5,2.1-0.5c0.5,0,1.1,0.1,1.6,0.4s1,0.6,1.3,1
	c0.3,0.4,0.5,0.9,0.5,1.5v4.5c0,0.3,0.1,0.5,0.2,0.7s0.3,0.3,0.5,0.3c0.2,0,0.4-0.1,0.5-0.3s0.2-0.5,0.2-0.7v-1.3H85v1.3
	c0,0.3-0.1,0.6-0.2,0.9c-0.2,0.3-0.4,0.5-0.6,0.6c-0.3,0.2-0.5,0.2-0.9,0.2c-0.4,0-0.7-0.2-1-0.5c-0.3-0.3-0.4-0.7-0.5-1.1
	c-0.2,0.5-0.6,0.9-1.1,1.2s-1,0.4-1.5,0.4c-0.5,0-1-0.1-1.5-0.2c-0.5-0.1-0.9-0.4-1.2-0.7C76.1,367.8,75.9,367.4,75.9,366.8z"/>
<path class="st4" d="M86.4,373.8c-0.1,0-0.2-0.1-0.2-0.2c0-0.1,0-0.1,0-0.1c2.3-2.2,3.4-5.5,3.4-9.7c0-4.2-1.1-7.5-3.4-9.7
	c-0.1,0-0.1-0.1-0.1-0.2c0,0,0-0.1,0.1-0.1c0,0,0.1-0.1,0.1-0.1h0.2c0,0,0.1,0,0.1,0c1,0.8,1.8,1.7,2.4,2.8s1.1,2.2,1.4,3.5
	c0.3,1.2,0.4,2.5,0.4,3.8c0,0.9-0.1,1.9-0.2,2.8c-0.2,0.9-0.4,1.8-0.8,2.7s-0.8,1.7-1.3,2.5s-1.2,1.4-1.9,2c0,0-0.1,0-0.1,0H86.4z"
	/>
<path class="st4" d="M100.7,368.4c0-0.1,0-0.1,0-0.2l2.9-11.6c0.1-0.2,0.1-0.4,0.1-0.5c0-0.2-0.4-0.3-1.3-0.3
	c-0.1,0-0.2-0.1-0.2-0.3c0,0,0-0.1,0-0.2c0-0.1,0-0.2,0.1-0.2c0,0,0.1-0.1,0.1-0.1l2.7-0.2h0c0,0,0,0,0.1,0c0,0,0.1,0,0.1,0
	c0,0.1,0,0.1,0,0.2l-2.1,8.4c0.5-0.2,1.1-0.7,1.8-1.4c0.7-0.8,1.3-1.3,1.7-1.6c0.4-0.3,0.9-0.5,1.6-0.5c0.4,0,0.7,0.1,1,0.4
	c0.3,0.3,0.4,0.6,0.4,0.9c0,0.2,0,0.4-0.1,0.6c-0.1,0.2-0.2,0.4-0.4,0.5c-0.2,0.1-0.4,0.2-0.6,0.2c-0.2,0-0.4-0.1-0.5-0.2
	c-0.1-0.1-0.2-0.3-0.2-0.5c0-0.3,0.1-0.6,0.3-0.8c0.2-0.2,0.5-0.3,0.8-0.3c-0.1-0.2-0.3-0.3-0.6-0.3c-0.4,0-0.8,0.1-1.1,0.3
	c-0.4,0.2-0.8,0.6-1.2,1c-0.4,0.4-0.8,0.8-1.2,1.2c-0.3,0.4-0.7,0.6-1,0.8c0.8,0.1,1.5,0.3,2,0.6c0.6,0.3,0.9,0.8,0.9,1.5
	c0,0.1,0,0.3-0.1,0.5c-0.1,0.5-0.2,0.9-0.2,1.2c0,0.6,0.2,0.9,0.6,0.9c0.5,0,0.8-0.3,1.1-0.8s0.5-1.1,0.6-1.8c0-0.1,0.1-0.1,0.2-0.1
	h0.2c0.1,0,0.1,0,0.1,0.1c0,0,0.1,0.1,0.1,0.1c0,0,0,0,0,0c-0.5,2-1.3,3-2.3,3c-0.4,0-0.7-0.1-1-0.3c-0.3-0.2-0.5-0.4-0.7-0.7
	c-0.2-0.3-0.2-0.6-0.2-1c0-0.2,0-0.4,0.1-0.7c0-0.2,0.1-0.3,0.1-0.4c0-0.5-0.2-0.9-0.7-1.2s-1-0.4-1.6-0.5l-1,4.1
	c-0.1,0.2-0.2,0.4-0.3,0.5s-0.3,0.2-0.5,0.2c-0.2,0-0.3-0.1-0.4-0.2C100.7,368.7,100.7,368.6,100.7,368.4z"/>
<path class="st4" d="M117.7,362.3c-0.1,0-0.2,0-0.3-0.1c-0.1-0.1-0.1-0.2-0.1-0.3c0-0.1,0-0.2,0.1-0.3c0.1-0.1,0.2-0.1,0.3-0.1h12.6
	c0.1,0,0.2,0,0.2,0.1c0.1,0.1,0.1,0.2,0.1,0.3c0,0.1,0,0.2-0.1,0.3c-0.1,0.1-0.2,0.1-0.2,0.1H117.7z M117.7,366.2
	c-0.1,0-0.2,0-0.3-0.1c-0.1-0.1-0.1-0.2-0.1-0.3c0-0.1,0-0.2,0.1-0.3c0.1-0.1,0.2-0.1,0.3-0.1h12.6c0.1,0,0.2,0,0.2,0.1
	c0.1,0.1,0.1,0.2,0.1,0.3c0,0.1,0,0.2-0.1,0.3c-0.1,0.1-0.2,0.1-0.2,0.1H117.7z"/>
<path class="st4" d="M139.2,368.8v-0.7c1.7,0,2.5-0.2,2.5-0.6V357c-0.7,0.3-1.6,0.5-2.6,0.5v-0.7c1.6,0,2.9-0.4,3.7-1.3h0.3
	c0.1,0,0.1,0,0.1,0.1c0,0,0.1,0.1,0.1,0.1v11.8c0,0.4,0.8,0.6,2.5,0.6v0.7H139.2z"/>
<path class="st4" d="M152.3,368.7c0.7,0,1.3-0.4,1.7-1.1c0.4-0.8,0.6-1.6,0.7-2.5c0.1-0.9,0.1-1.9,0.1-3c0-1,0-1.9-0.1-2.8
	c-0.1-0.8-0.3-1.6-0.7-2.3c-0.4-0.7-0.9-1-1.7-1s-1.3,0.3-1.7,1c-0.4,0.7-0.6,1.5-0.7,2.3c-0.1,0.8-0.1,1.8-0.1,2.8
	c0,0.7,0,1.4,0.1,2.1c0,0.7,0.1,1.3,0.3,2c0.2,0.7,0.4,1.3,0.8,1.8C151.3,368.5,151.7,368.7,152.3,368.7z M152.3,369.2
	c-1.6,0-2.7-0.7-3.3-2c-0.6-1.3-0.9-2.9-0.9-4.8c0-1.2,0.1-2.2,0.3-3.3c0.2-1,0.6-1.9,1.3-2.6c0.6-0.7,1.5-1.1,2.6-1.1
	c0.9,0,1.6,0.2,2.2,0.6c0.6,0.4,1,1,1.3,1.7c0.3,0.7,0.5,1.4,0.6,2.2c0.1,0.8,0.2,1.6,0.2,2.4c0,1.1-0.1,2.2-0.3,3.2
	c-0.2,1-0.6,1.8-1.2,2.5C154.3,368.9,153.4,369.2,152.3,369.2z"/>
<path class="st4" d="M162.3,368.7c0.7,0,1.3-0.4,1.7-1.1c0.4-0.8,0.6-1.6,0.7-2.5c0.1-0.9,0.1-1.9,0.1-3c0-1,0-1.9-0.1-2.8
	c-0.1-0.8-0.3-1.6-0.7-2.3c-0.4-0.7-0.9-1-1.7-1s-1.3,0.3-1.7,1c-0.4,0.7-0.6,1.5-0.7,2.3c-0.1,0.8-0.1,1.8-0.1,2.8
	c0,0.7,0,1.4,0.1,2.1c0,0.7,0.1,1.3,0.3,2c0.2,0.7,0.4,1.3,0.8,1.8C161.3,368.5,161.7,368.7,162.3,368.7z M162.3,369.2
	c-1.6,0-2.7-0.7-3.3-2c-0.6-1.3-0.9-2.9-0.9-4.8c0-1.2,0.1-2.2,0.3-3.3c0.2-1,0.6-1.9,1.3-2.6c0.6-0.7,1.5-1.1,2.6-1.1
	c0.9,0,1.6,0.2,2.2,0.6c0.6,0.4,1,1,1.3,1.7c0.3,0.7,0.5,1.4,0.6,2.2c0.1,0.8,0.2,1.6,0.2,2.4c0,1.1-0.1,2.2-0.3,3.2
	c-0.2,1-0.6,1.8-1.2,2.5C164.3,368.9,163.4,369.2,162.3,369.2z"/>
<path class="st4" d="M172.3,368.7c0.7,0,1.3-0.4,1.7-1.1c0.4-0.8,0.6-1.6,0.7-2.5c0.1-0.9,0.1-1.9,0.1-3c0-1,0-1.9-0.1-2.8
	c-0.1-0.8-0.3-1.6-0.7-2.3c-0.4-0.7-0.9-1-1.7-1s-1.3,0.3-1.7,1c-0.4,0.7-0.6,1.5-0.7,2.3c-0.1,0.8-0.1,1.8-0.1,2.8
	c0,0.7,0,1.4,0.1,2.1c0,0.7,0.1,1.3,0.3,2c0.2,0.7,0.4,1.3,0.8,1.8C171.3,368.5,171.7,368.7,172.3,368.7z M172.3,369.2
	c-1.6,0-2.7-0.7-3.3-2c-0.6-1.3-0.9-2.9-0.9-4.8c0-1.2,0.1-2.2,0.3-3.3c0.2-1,0.6-1.9,1.3-2.6c0.6-0.7,1.5-1.1,2.6-1.1
	c0.9,0,1.6,0.2,2.2,0.6c0.6,0.4,1,1,1.3,1.7c0.3,0.7,0.5,1.4,0.6,2.2c0.1,0.8,0.2,1.6,0.2,2.4c0,1.1-0.1,2.2-0.3,3.2
	c-0.2,1-0.6,1.8-1.2,2.5C174.3,368.9,173.4,369.2,172.3,369.2z"/>
<path class="st4" d="M179.3,372.4c0-0.1,0-0.1,0.1-0.2c0.5-0.5,0.9-1,1.1-1.6s0.4-1.2,0.4-1.9v-0.2c-0.2,0.2-0.5,0.3-0.8,0.3
	c-0.3,0-0.6-0.1-0.8-0.3c-0.2-0.2-0.3-0.5-0.3-0.8s0.1-0.6,0.3-0.8c0.2-0.2,0.5-0.3,0.8-0.3c0.5,0,0.8,0.2,1,0.7
	c0.2,0.4,0.3,0.9,0.3,1.5c0,0.7-0.1,1.4-0.4,2.1c-0.3,0.7-0.7,1.3-1.3,1.8c-0.1,0-0.1,0-0.1,0c-0.1,0-0.1,0-0.2-0.1
	C179.3,372.5,179.3,372.5,179.3,372.4z"/>
<path class="st4" d="M194.4,368.5c0-0.1,0-0.1,0-0.2l1.5-6c0.1-0.4,0.1-0.7,0.1-1c0-0.6-0.2-0.9-0.6-0.9c-0.4,0-0.7,0.2-0.9,0.8
	s-0.4,1.1-0.6,1.9c0,0,0,0.1-0.1,0.1c0,0-0.1,0-0.1,0h-0.2c0,0-0.1,0-0.1-0.1c0,0-0.1-0.1-0.1-0.1c0.1-0.6,0.3-1.1,0.4-1.5
	c0.1-0.4,0.3-0.8,0.6-1.1c0.3-0.3,0.6-0.5,1.1-0.5c0.5,0,0.9,0.2,1.3,0.5c0.4,0.3,0.6,0.7,0.6,1.2c0.4-0.5,0.9-0.9,1.4-1.2
	c0.5-0.3,1.1-0.5,1.7-0.5c0.5,0,0.9,0.1,1.2,0.2c0.3,0.2,0.6,0.4,0.8,0.7c0.2,0.3,0.3,0.7,0.3,1.2c0,0.6-0.1,1.2-0.4,2
	c-0.2,0.8-0.5,1.6-0.9,2.6c-0.2,0.4-0.3,0.8-0.3,1.2c0,0.4,0.2,0.6,0.5,0.6c0.5,0,1-0.3,1.3-0.8c0.3-0.6,0.6-1.2,0.7-1.8
	c0-0.1,0.1-0.1,0.2-0.1h0.2c0.1,0,0.1,0,0.1,0.1c0,0,0.1,0.1,0.1,0.1c0,0,0,0,0,0c-0.2,0.8-0.5,1.5-1,2.1c-0.5,0.6-1,1-1.7,1
	c-0.5,0-0.9-0.2-1.2-0.5c-0.3-0.3-0.5-0.7-0.5-1.2c0-0.2,0.1-0.5,0.2-0.8c0.2-0.4,0.4-1,0.6-1.6c0.2-0.6,0.4-1.2,0.5-1.7
	c0.1-0.6,0.2-1,0.2-1.5c0-0.4-0.1-0.7-0.2-1c-0.2-0.3-0.4-0.4-0.8-0.4c-0.5,0-0.9,0.1-1.3,0.3s-0.8,0.5-1.1,0.9
	c-0.3,0.4-0.6,0.8-0.8,1.3l-1.4,5.4c-0.1,0.2-0.2,0.3-0.3,0.5c-0.2,0.1-0.3,0.2-0.5,0.2c-0.2,0-0.3-0.1-0.4-0.2
	C194.5,368.8,194.4,368.6,194.4,368.5z"/>
<path class="st4" d="M211.9,362.3c-0.1,0-0.2,0-0.3-0.1c-0.1-0.1-0.1-0.2-0.1-0.3c0-0.1,0-0.2,0.1-0.3c0.1-0.1,0.2-0.1,0.3-0.1h12.6
	c0.1,0,0.2,0,0.2,0.1c0.1,0.1,0.1,0.2,0.1,0.3c0,0.1,0,0.2-0.1,0.3c-0.1,0.1-0.2,0.1-0.2,0.1H211.9z M211.9,366.2
	c-0.1,0-0.2,0-0.3-0.1c-0.1-0.1-0.1-0.2-0.1-0.3c0-0.1,0-0.2,0.1-0.3c0.1-0.1,0.2-0.1,0.3-0.1h12.6c0.1,0,0.2,0,0.2,0.1
	c0.1,0.1,0.1,0.2,0.1,0.3c0,0.1,0,0.2-0.1,0.3c-0.1,0.1-0.2,0.1-0.2,0.1H211.9z"/>
<path class="st4" d="M233.4,368.8v-0.7c1.7,0,2.5-0.2,2.5-0.6V357c-0.7,0.3-1.6,0.5-2.6,0.5v-0.7c1.6,0,2.9-0.4,3.7-1.3h0.3
	c0.1,0,0.1,0,0.1,0.1c0,0,0.1,0.1,0.1,0.1v11.8c0,0.4,0.8,0.6,2.5,0.6v0.7H233.4z"/>
<path class="st4" d="M246.5,368.7c0.7,0,1.3-0.4,1.7-1.1c0.4-0.8,0.6-1.6,0.7-2.5c0.1-0.9,0.1-1.9,0.1-3c0-1,0-1.9-0.1-2.8
	c-0.1-0.8-0.3-1.6-0.7-2.3c-0.4-0.7-0.9-1-1.7-1s-1.3,0.3-1.7,1c-0.4,0.7-0.6,1.5-0.7,2.3c-0.1,0.8-0.1,1.8-0.1,2.8
	c0,0.7,0,1.4,0.1,2.1c0,0.7,0.1,1.3,0.3,2c0.2,0.7,0.4,1.3,0.8,1.8C245.5,368.5,246,368.7,246.5,368.7z M246.5,369.2
	c-1.6,0-2.7-0.7-3.3-2c-0.6-1.3-0.9-2.9-0.9-4.8c0-1.2,0.1-2.2,0.3-3.3c0.2-1,0.6-1.9,1.3-2.6c0.6-0.7,1.5-1.1,2.6-1.1
	c0.9,0,1.6,0.2,2.2,0.6c0.6,0.4,1,1,1.3,1.7c0.3,0.7,0.5,1.4,0.6,2.2c0.1,0.8,0.2,1.6,0.2,2.4c0,1.1-0.1,2.2-0.3,3.2
	c-0.2,1-0.6,1.8-1.2,2.5C248.5,368.9,247.7,369.2,246.5,369.2z"/>
<path class="st4" d="M256.5,368.7c0.7,0,1.3-0.4,1.7-1.1c0.4-0.8,0.6-1.6,0.7-2.5c0.1-0.9,0.1-1.9,0.1-3c0-1,0-1.9-0.1-2.8
	c-0.1-0.8-0.3-1.6-0.7-2.3c-0.4-0.7-0.9-1-1.7-1c-0.7,0-1.3,0.3-1.7,1c-0.4,0.7-0.6,1.5-0.7,2.3c-0.1,0.8-0.1,1.8-0.1,2.8
	c0,0.7,0,1.4,0.1,2.1c0,0.7,0.1,1.3,0.3,2c0.2,0.7,0.4,1.3,0.8,1.8C255.5,368.5,256,368.7,256.5,368.7z M256.5,369.2
	c-1.6,0-2.7-0.7-3.3-2c-0.6-1.3-0.9-2.9-0.9-4.8c0-1.2,0.1-2.2,0.3-3.3c0.2-1,0.6-1.9,1.3-2.6c0.6-0.7,1.5-1.1,2.6-1.1
	c0.9,0,1.6,0.2,2.2,0.6c0.6,0.4,1,1,1.3,1.7c0.3,0.7,0.5,1.4,0.6,2.2c0.1,0.8,0.2,1.6,0.2,2.4c0,1.1-0.1,2.2-0.3,3.2
	s-0.6,1.8-1.2,2.5C258.5,368.9,257.7,369.2,256.5,369.2z"/>
<path class="st4" d="M266.5,368.7c0.7,0,1.3-0.4,1.7-1.1c0.4-0.8,0.6-1.6,0.7-2.5c0.1-0.9,0.1-1.9,0.1-3c0-1,0-1.9-0.1-2.8
	c-0.1-0.8-0.3-1.6-0.7-2.3c-0.4-0.7-0.9-1-1.7-1s-1.3,0.3-1.7,1s-0.6,1.5-0.7,2.3s-0.1,1.8-0.1,2.8c0,0.7,0,1.4,0.1,2.1
	c0,0.7,0.1,1.3,0.3,2c0.2,0.7,0.4,1.3,0.8,1.8C265.5,368.5,266,368.7,266.5,368.7z M266.5,369.2c-1.6,0-2.7-0.7-3.3-2
	s-0.9-2.9-0.9-4.8c0-1.2,0.1-2.2,0.3-3.3c0.2-1,0.6-1.9,1.3-2.6c0.6-0.7,1.5-1.1,2.6-1.1c0.9,0,1.6,0.2,2.2,0.6c0.6,0.4,1,1,1.3,1.7
	c0.3,0.7,0.5,1.4,0.6,2.2c0.1,0.8,0.2,1.6,0.2,2.4c0,1.1-0.1,2.2-0.3,3.2s-0.6,1.8-1.2,2.5C268.5,368.9,267.7,369.2,266.5,369.2z"/>
<line class="st3" x1="53.4" y1="307.7" x2="53.4" y2="75.7"/>
<line class="st3" x1="285.4" y1="307.7" x2="285.4" y2="75.7"/>
<line class="st3" x1="53.4" y1="307.7" x2="55.8" y2="307.7"/>
<line class="st3" x1="53.4" y1="275.2" x2="55.8" y2="275.2"/>
<line class="st3" x1="53.4" y1="242.8" x2="55.8" y2="242.8"/>
<line class="st3" x1="53.4" y1="210.3" x2="55.8" y2="210.3"/>
<line class="st3" x1="53.4" y1="177.9" x2="55.8" y2="177.9"/>
<line class="st3" x1="53.4" y1="145.4" x2="55.8" y2="145.4"/>
<line class="st3" x1="53.4" y1="113" x2="55.8" y2="113"/>
<line class="st3" x1="53.4" y1="80.5" x2="55.8" y2="80.5"/>
<line class="st3" x1="285.4" y1="307.7" x2="283.1" y2="307.7"/>
<line class="st3" x1="285.4" y1="275.2" x2="283.1" y2="275.2"/>
<line class="st3" x1="285.4" y1="242.8" x2="283.1" y2="242.8"/>
<line class="st3" x1="285.4" y1="210.3" x2="283.1" y2="210.3"/>
<line class="st3" x1="285.4" y1="177.9" x2="283.1" y2="177.9"/>
<line class="st3" x1="285.4" y1="145.4" x2="283.1" y2="145.4"/>
<line class="st3" x1="285.4" y1="113" x2="283.1" y2="113"/>
<line class="st3" x1="285.4" y1="80.5" x2="283.1" y2="80.5"/>
<text transform="matrix(1 0 0 1 39.4475 313.1972)" class="st4 st5 st6">0</text>
<text transform="matrix(1 0 0 1 27.4475 280.7458)" class="st4 st5 st6">0.5</text>
<text transform="matrix(1 0 0 1 39.4475 248.2944)" class="st4 st5 st6">1</text>
<text transform="matrix(1 0 0 1 27.4475 215.843)" class="st4 st5 st6">1.5</text>
<text transform="matrix(1 0 0 1 39.4475 183.3915)" class="st4 st5 st6">2</text>
<text transform="matrix(1 0 0 1 27.4475 150.9401)" class="st4 st5 st6">2.5</text>
<text transform="matrix(1 0 0 1 39.4475 118.4887)" class="st4 st5 st6">3</text>
<text transform="matrix(1 0 0 1 27.4475 86.0373)" class="st4 st5 st6">3.5</text>
<text transform="matrix(0 -1 1 0 19.4479 222.6973)" class="st4 st5 st8">Tflop/s</text>
<polyline class="st9" points="53.4,167.1 73.1,138.5 92.5,119.8 111.9,108.9 131.2,103 150.5,99.9 169.8,98.4 189.1,97.6 
	208.3,97.2 227.6,97 246.9,96.9 266.2,96.8 285.4,96.8 "/>
<polyline class="st10" points="53.4,293.8 73.1,280.2 92.5,260.2 111.9,253.2 131.2,199.8 150.5,175.1 169.8,170.3 189.1,147.5 
	208.3,134.9 227.6,132.1 246.9,136.6 266.2,140.3 285.4,142.2 "/>
<path class="st11" d="M56.4,293.8c0-1.7-1.3-3-3-3c-1.7,0-3,1.3-3,3c0,1.7,1.3,3,3,3C55.1,296.8,56.4,295.5,56.4,293.8"/>
<path class="st11" d="M76.1,280.2c0-1.7-1.3-3-3-3s-3,1.3-3,3c0,1.7,1.3,3,3,3S76.1,281.9,76.1,280.2"/>
<path class="st11" d="M95.5,260.2c0-1.7-1.3-3-3-3c-1.7,0-3,1.3-3,3c0,1.7,1.3,3,3,3C94.2,263.2,95.5,261.9,95.5,260.2"/>
<path class="st11" d="M114.9,253.2c0-1.7-1.3-3-3-3c-1.7,0-3,1.3-3,3c0,1.7,1.3,3,3,3C113.5,256.2,114.9,254.9,114.9,253.2"/>
<path class="st11" d="M134.2,199.8c0-1.7-1.3-3-3-3c-1.7,0-3,1.3-3,3c0,1.7,1.3,3,3,3C132.8,202.8,134.2,201.5,134.2,199.8"/>
<path class="st11" d="M153.5,175.1c0-1.7-1.3-3-3-3c-1.7,0-3,1.3-3,3c0,1.7,1.3,3,3,3C152.1,178.1,153.5,176.8,153.5,175.1"/>
<path class="st11" d="M172.8,170.3c0-1.7-1.3-3-3-3c-1.7,0-3,1.3-3,3c0,1.7,1.3,3,3,3C171.4,173.3,172.8,171.9,172.8,170.3"/>
<path class="st11" d="M192.1,147.5c0-1.7-1.3-3-3-3c-1.7,0-3,1.3-3,3c0,1.7,1.3,3,3,3C190.7,150.5,192.1,149.1,192.1,147.5"/>
<path class="st11" d="M211.3,134.9c0-1.7-1.3-3-3-3c-1.7,0-3,1.3-3,3c0,1.7,1.3,3,3,3C210,137.9,211.3,136.6,211.3,134.9"/>
<path class="st11" d="M230.6,132.1c0-1.7-1.3-3-3-3c-1.7,0-3,1.3-3,3c0,1.7,1.3,3,3,3C229.3,135.1,230.6,133.8,230.6,132.1"/>
<path class="st11" d="M249.9,136.6c0-1.7-1.3-3-3-3c-1.7,0-3,1.3-3,3c0,1.7,1.3,3,3,3C248.5,139.6,249.9,138.2,249.9,136.6"/>
<path class="st11" d="M269.2,140.3c0-1.7-1.3-3-3-3c-1.7,0-3,1.3-3,3c0,1.7,1.3,3,3,3C267.8,143.3,269.2,141.9,269.2,140.3"/>
<path class="st11" d="M288.4,142.2c0-1.7-1.3-3-3-3c-1.7,0-3,1.3-3,3c0,1.7,1.3,3,3,3C287.1,145.2,288.4,143.8,288.4,142.2"/>
<polyline class="st12" points="53.4,298.9 73.1,292.2 92.5,280.5 111.9,259.9 131.2,252.4 150.5,252.9 169.8,224.1 189.1,193.4 
	208.3,170.6 227.6,155.2 246.9,156.3 266.2,155.7 285.4,155.8 "/>
<path class="st13" d="M51.3,301l4.2-4.2 M51.3,296.7l4.2,4.2 M50.4,298.9h6 M53.4,295.9v6"/>
<path class="st13" d="M70.9,294.3l4.2-4.2 M70.9,290l4.2,4.2 M70.1,292.2h6 M73.1,289.2v6"/>
<path class="st13" d="M90.4,282.7l4.2-4.2 M90.4,278.4l4.2,4.2 M89.5,280.5h6 M92.5,277.5v6"/>
<path class="st13" d="M109.7,262l4.2-4.2 M109.7,257.8l4.2,4.2 M108.9,259.9h6 M111.9,256.9v6"/>
<path class="st13" d="M129.1,254.5l4.2-4.2 M129.1,250.3l4.2,4.2 M128.2,252.4h6 M131.2,249.4v6"/>
<path class="st13" d="M148.4,255l4.2-4.2 M148.4,250.8l4.2,4.2 M147.5,252.9h6 M150.5,249.9v6"/>
<path class="st13" d="M167.6,226.2l4.2-4.2 M167.6,221.9l4.2,4.2 M166.8,224.1h6 M169.8,221.1v6"/>
<path class="st13" d="M186.9,195.5l4.2-4.2 M186.9,191.2l4.2,4.2 M186.1,193.4h6 M189.1,190.4v6"/>
<path class="st13" d="M206.2,172.7l4.2-4.2 M206.2,168.4l4.2,4.2 M205.3,170.6h6 M208.3,167.6v6"/>
<path class="st13" d="M225.5,157.4l4.2-4.2 M225.5,153.1l4.2,4.2 M224.6,155.2h6 M227.6,152.2v6"/>
<path class="st13" d="M244.8,158.5l4.2-4.2 M244.8,154.2l4.2,4.2 M243.9,156.3h6 M246.9,153.3v6"/>
<path class="st13" d="M264,157.9l4.2-4.2 M264,153.6l4.2,4.2 M263.2,155.7h6 M266.2,152.7v6"/>
<path class="st13" d="M283.3,157.9l4.2-4.2 M283.3,153.6l4.2,4.2 M282.4,155.8h6 M285.4,152.8v6"/>
<polyline class="st14" points="53.4,299.7 73.1,300 92.5,299.7 111.9,300.9 131.2,296.9 150.5,295.5 169.8,293.7 189.1,292.5 
	208.3,288.9 227.6,288.7 246.9,286.9 266.2,286.6 285.4,285 "/>
<path class="st15" d="M51.3,301.8l4.2-4.2 M51.3,297.5l4.2,4.2"/>
<path class="st15" d="M70.9,302.1l4.2-4.2 M70.9,297.9l4.2,4.2"/>
<path class="st15" d="M90.4,301.9l4.2-4.2 M90.4,297.6l4.2,4.2"/>
<path class="st15" d="M109.7,303l4.2-4.2 M109.7,298.8l4.2,4.2"/>
<path class="st15" d="M129.1,299l4.2-4.2 M129.1,294.8l4.2,4.2"/>
<path class="st15" d="M148.4,297.6l4.2-4.2 M148.4,293.4l4.2,4.2"/>
<path class="st15" d="M167.6,295.8l4.2-4.2 M167.6,291.5l4.2,4.2"/>
<path class="st15" d="M186.9,294.7l4.2-4.2 M186.9,290.4l4.2,4.2"/>
<path class="st15" d="M206.2,291l4.2-4.2 M206.2,286.8l4.2,4.2"/>
<path class="st15" d="M225.5,290.8l4.2-4.2 M225.5,286.6l4.2,4.2"/>
<path class="st15" d="M244.8,289l4.2-4.2 M244.8,284.8l4.2,4.2"/>
<path class="st15" d="M264,288.7l4.2-4.2 M264,284.5l4.2,4.2"/>
<path class="st15" d="M283.3,287.1l4.2-4.2 M283.3,282.9l4.2,4.2"/>
<polyline class="st16" points="53.4,299.1 73.1,292 92.5,278.3 111.9,261.7 131.2,240.1 150.5,219.6 169.8,215.8 189.1,209 
	208.3,205.1 227.6,203.2 246.9,202.7 266.2,203 285.4,214.1 "/>
<rect x="51.4" y="297.1" class="st17" width="4" height="4"/>
<rect x="71.1" y="290" class="st17" width="4" height="4"/>
<rect x="90.5" y="276.3" class="st17" width="4" height="4"/>
<rect x="109.9" y="259.7" class="st17" width="4" height="4"/>
<rect x="129.2" y="238.1" class="st17" width="4" height="4"/>
<rect x="148.5" y="217.6" class="st17" width="4" height="4"/>
<rect x="167.8" y="213.8" class="st17" width="4" height="4"/>
<rect x="187.1" y="207" class="st17" width="4" height="4"/>
<rect x="206.3" y="203.1" class="st17" width="4" height="4"/>
<rect x="225.6" y="201.2" class="st17" width="4" height="4"/>
<rect x="244.9" y="200.7" class="st17" width="4" height="4"/>
<rect x="264.2" y="201" class="st17" width="4" height="4"/>
<rect x="283.4" y="212.1" class="st17" width="4" height="4"/>
<polyline class="st18" points="53.4,307.5 73.1,270 92.5,257.5 111.9,254.9 131.2,214 150.5,205.3 169.8,201.6 189.1,200.3 
	208.3,202.2 227.6,196.1 246.9,198 266.2,204.2 "/>
<path class="st19" d="M50.4,307.5h6 M53.4,304.5v6"/>
<path class="st19" d="M70.1,270h6 M73.1,267v6"/>
<path class="st19" d="M89.5,257.5h6 M92.5,254.5v6"/>
<path class="st19" d="M108.9,254.9h6 M111.9,251.9v6"/>
<path class="st19" d="M128.2,214h6 M131.2,211v6"/>
<path class="st19" d="M147.5,205.3h6 M150.5,202.3v6"/>
<path class="st19" d="M166.8,201.6h6 M169.8,198.6v6"/>
<path class="st19" d="M186.1,200.3h6 M189.1,197.3v6"/>
<path class="st19" d="M205.3,202.2h6 M208.3,199.2v6"/>
<path class="st19" d="M224.6,196.1h6 M227.6,193.1v6"/>
<path class="st19" d="M243.9,198h6 M246.9,195v6"/>
<path class="st19" d="M263.2,204.2h6 M266.2,201.2v6"/>
<rect x="351.9" y="75.7" class="st0" width="232" height="232"/>
<line class="st1" x1="351.9" y1="307.7" x2="351.9" y2="75.7"/>
<line class="st1" x1="375.1" y1="307.7" x2="375.1" y2="75.7"/>
<line class="st1" x1="388.6" y1="307.7" x2="388.6" y2="75.7"/>
<line class="st1" x1="398.2" y1="307.7" x2="398.2" y2="75.7"/>
<line class="st1" x1="405.6" y1="307.7" x2="405.6" y2="75.7"/>
<line class="st1" x1="411.7" y1="307.7" x2="411.7" y2="75.7"/>
<line class="st1" x1="416.9" y1="307.7" x2="416.9" y2="75.7"/>
<line class="st1" x1="421.3" y1="307.7" x2="421.3" y2="75.7"/>
<line class="st1" x1="425.2" y1="307.7" x2="425.2" y2="75.7"/>
<line class="st1" x1="451.9" y1="307.7" x2="451.9" y2="75.7"/>
<line class="st1" x1="465.4" y1="307.7" x2="465.4" y2="75.7"/>
<line class="st1" x1="475" y1="307.7" x2="475" y2="75.7"/>
<line class="st1" x1="482.4" y1="307.7" x2="482.4" y2="75.7"/>
<line class="st1" x1="488.5" y1="307.7" x2="488.5" y2="75.7"/>
<line class="st1" x1="493.7" y1="307.7" x2="493.7" y2="75.7"/>
<line class="st1" x1="498.1" y1="307.7" x2="498.1" y2="75.7"/>
<line class="st1" x1="502" y1="307.7" x2="502" y2="75.7"/>
<line class="st1" x1="505.6" y1="307.7" x2="505.6" y2="75.7"/>
<line class="st1" x1="528.7" y1="307.7" x2="528.7" y2="75.7"/>
<line class="st1" x1="542.2" y1="307.7" x2="542.2" y2="75.7"/>
<line class="st1" x1="551.8" y1="307.7" x2="551.8" y2="75.7"/>
<line class="st1" x1="559.2" y1="307.7" x2="559.2" y2="75.7"/>
<line class="st1" x1="565.3" y1="307.7" x2="565.3" y2="75.7"/>
<line class="st1" x1="570.5" y1="307.7" x2="570.5" y2="75.7"/>
<line class="st1" x1="574.9" y1="307.7" x2="574.9" y2="75.7"/>
<line class="st1" x1="578.9" y1="307.7" x2="578.9" y2="75.7"/>
<line class="st2" x1="428.8" y1="307.7" x2="428.8" y2="75.7"/>
<line class="st2" x1="582.4" y1="307.7" x2="582.4" y2="75.7"/>
<line class="st2" x1="583.9" y1="307.7" x2="351.9" y2="307.7"/>
<line class="st2" x1="583.9" y1="272.5" x2="351.9" y2="272.5"/>
<line class="st2" x1="583.9" y1="237.4" x2="351.9" y2="237.4"/>
<line class="st2" x1="583.9" y1="202.2" x2="351.9" y2="202.2"/>
<line class="st2" x1="583.9" y1="167.1" x2="351.9" y2="167.1"/>
<line class="st2" x1="583.9" y1="131.9" x2="351.9" y2="131.9"/>
<line class="st2" x1="583.9" y1="96.8" x2="351.9" y2="96.8"/>
<line class="st3" x1="351.9" y1="307.7" x2="583.9" y2="307.7"/>
<line class="st3" x1="351.9" y1="75.7" x2="583.9" y2="75.7"/>
<line class="st3" x1="428.8" y1="307.7" x2="428.8" y2="305.4"/>
<line class="st3" x1="582.4" y1="307.7" x2="582.4" y2="305.4"/>
<line class="st3" x1="428.8" y1="75.7" x2="428.8" y2="78"/>
<line class="st3" x1="582.4" y1="75.7" x2="582.4" y2="78"/>
<line class="st3" x1="351.9" y1="307.7" x2="351.9" y2="306.5"/>
<line class="st3" x1="375.1" y1="307.7" x2="375.1" y2="306.5"/>
<line class="st3" x1="388.6" y1="307.7" x2="388.6" y2="306.5"/>
<line class="st3" x1="398.2" y1="307.7" x2="398.2" y2="306.5"/>
<line class="st3" x1="405.6" y1="307.7" x2="405.6" y2="306.5"/>
<line class="st3" x1="411.7" y1="307.7" x2="411.7" y2="306.5"/>
<line class="st3" x1="416.9" y1="307.7" x2="416.9" y2="306.5"/>
<line class="st3" x1="421.3" y1="307.7" x2="421.3" y2="306.5"/>
<line class="st3" x1="425.2" y1="307.7" x2="425.2" y2="306.5"/>
<line class="st3" x1="428.8" y1="307.7" x2="428.8" y2="306.5"/>
<line class="st3" x1="451.9" y1="307.7" x2="451.9" y2="306.5"/>
<line class="st3" x1="465.4" y1="307.7" x2="465.4" y2="306.5"/>
<line class="st3" x1="475" y1="307.7" x2="475" y2="306.5"/>
<line class="st3" x1="482.4" y1="307.7" x2="482.4" y2="306.5"/>
<line class="st3" x1="488.5" y1="307.7" x2="488.5" y2="306.5"/>
<line class="st3" x1="493.7" y1="307.7" x2="493.7" y2="306.5"/>
<line class="st3" x1="498.1" y1="307.7" x2="498.1" y2="306.5"/>
<line class="st3" x1="502" y1="307.7" x2="502" y2="306.5"/>
<line class="st3" x1="505.6" y1="307.7" x2="505.6" y2="306.5"/>
<line class="st3" x1="528.7" y1="307.7" x2="528.7" y2="306.5"/>
<line class="st3" x1="542.2" y1="307.7" x2="542.2" y2="306.5"/>
<line class="st3" x1="551.8" y1="307.7" x2="551.8" y2="306.5"/>
<line class="st3" x1="559.2" y1="307.7" x2="559.2" y2="306.5"/>
<line class="st3" x1="565.3" y1="307.7" x2="565.3" y2="306.5"/>
<line class="st3" x1="570.5" y1="307.7" x2="570.5" y2="306.5"/>
<line class="st3" x1="574.9" y1="307.7" x2="574.9" y2="306.5"/>
<line class="st3" x1="578.9" y1="307.7" x2="578.9" y2="306.5"/>
<line class="st3" x1="582.4" y1="307.7" x2="582.4" y2="306.5"/>
<line class="st3" x1="351.9" y1="75.7" x2="351.9" y2="76.9"/>
<line class="st3" x1="375.1" y1="75.7" x2="375.1" y2="76.9"/>
<line class="st3" x1="388.6" y1="75.7" x2="388.6" y2="76.9"/>
<line class="st3" x1="398.2" y1="75.7" x2="398.2" y2="76.9"/>
<line class="st3" x1="405.6" y1="75.7" x2="405.6" y2="76.9"/>
<line class="st3" x1="411.7" y1="75.7" x2="411.7" y2="76.9"/>
<line class="st3" x1="416.9" y1="75.7" x2="416.9" y2="76.9"/>
<line class="st3" x1="421.3" y1="75.7" x2="421.3" y2="76.9"/>
<line class="st3" x1="425.2" y1="75.7" x2="425.2" y2="76.9"/>
<line class="st3" x1="428.8" y1="75.7" x2="428.8" y2="76.9"/>
<line class="st3" x1="451.9" y1="75.7" x2="451.9" y2="76.9"/>
<line class="st3" x1="465.4" y1="75.7" x2="465.4" y2="76.9"/>
<line class="st3" x1="475" y1="75.7" x2="475" y2="76.9"/>
<line class="st3" x1="482.4" y1="75.7" x2="482.4" y2="76.9"/>
<line class="st3" x1="488.5" y1="75.7" x2="488.5" y2="76.9"/>
<line class="st3" x1="493.7" y1="75.7" x2="493.7" y2="76.9"/>
<line class="st3" x1="498.1" y1="75.7" x2="498.1" y2="76.9"/>
<line class="st3" x1="502" y1="75.7" x2="502" y2="76.9"/>
<line class="st3" x1="505.6" y1="75.7" x2="505.6" y2="76.9"/>
<line class="st3" x1="528.7" y1="75.7" x2="528.7" y2="76.9"/>
<line class="st3" x1="542.2" y1="75.7" x2="542.2" y2="76.9"/>
<line class="st3" x1="551.8" y1="75.7" x2="551.8" y2="76.9"/>
<line class="st3" x1="559.2" y1="75.7" x2="559.2" y2="76.9"/>
<line class="st3" x1="565.3" y1="75.7" x2="565.3" y2="76.9"/>
<line class="st3" x1="570.5" y1="75.7" x2="570.5" y2="76.9"/>
<line class="st3" x1="574.9" y1="75.7" x2="574.9" y2="76.9"/>
<line class="st3" x1="578.9" y1="75.7" x2="578.9" y2="76.9"/>
<line class="st3" x1="582.4" y1="75.7" x2="582.4" y2="76.9"/>
<text transform="matrix(1 0 0 1 416.6975 331.6972)" class="st4 st5 st6">10</text>
<text transform="matrix(1 0 0 1 433.6975 324.6972)" class="st4 st5 st7">4</text>
<text transform="matrix(1 0 0 1 570.6975 331.6972)" class="st4 st5 st6">10</text>
<text transform="matrix(1 0 0 1 587.6975 324.6972)" class="st4 st5 st7">6</text>
<path class="st4" d="M460.7,344.5c0-0.1,0-0.1,0-0.2l1.5-6c0.1-0.4,0.1-0.7,0.1-1c0-0.6-0.2-0.9-0.6-0.9c-0.4,0-0.7,0.2-0.9,0.8
	s-0.4,1.1-0.6,1.9c0,0,0,0.1-0.1,0.1c0,0-0.1,0-0.1,0h-0.2c0,0-0.1,0-0.1-0.1c0,0-0.1-0.1-0.1-0.1c0.1-0.6,0.3-1.1,0.4-1.5
	c0.1-0.4,0.3-0.8,0.6-1.1c0.3-0.3,0.6-0.5,1.1-0.5c0.5,0,0.9,0.2,1.3,0.5c0.4,0.3,0.6,0.7,0.6,1.2c0.4-0.5,0.9-0.9,1.4-1.2
	c0.5-0.3,1.1-0.5,1.7-0.5c0.6,0,1.2,0.2,1.6,0.5c0.5,0.3,0.7,0.8,0.7,1.4c0.4-0.6,0.9-1,1.4-1.4c0.6-0.3,1.2-0.5,1.8-0.5
	c0.7,0,1.2,0.2,1.7,0.6s0.6,0.9,0.6,1.6c0,0.6-0.1,1.2-0.4,2c-0.2,0.8-0.5,1.6-0.9,2.6c-0.2,0.5-0.3,0.9-0.3,1.2
	c0,0.4,0.2,0.6,0.5,0.6c0.5,0,1-0.3,1.3-0.8s0.6-1.2,0.7-1.8c0-0.1,0.1-0.1,0.2-0.1h0.2c0.1,0,0.1,0,0.1,0.1c0,0,0,0.1,0,0.1
	c0,0,0,0,0,0c-0.2,0.8-0.5,1.5-0.9,2.1c-0.5,0.6-1,1-1.7,1c-0.5,0-0.9-0.2-1.2-0.5c-0.3-0.3-0.5-0.7-0.5-1.2c0-0.2,0.1-0.5,0.2-0.8
	c0.4-1,0.7-1.9,0.9-2.7c0.2-0.8,0.4-1.5,0.4-2.1c0-0.4-0.1-0.7-0.2-1c-0.2-0.3-0.4-0.4-0.7-0.4c-0.7,0-1.4,0.2-1.9,0.7
	c-0.5,0.4-1,1-1.4,1.8c0,0.1-0.1,0.2-0.1,0.3l-1.3,5.1c0,0.2-0.1,0.3-0.3,0.5c-0.2,0.1-0.3,0.2-0.5,0.2c-0.2,0-0.3-0.1-0.4-0.2
	c-0.1-0.1-0.2-0.2-0.2-0.4c0-0.1,0-0.1,0-0.2l1.3-5.1c0.1-0.6,0.2-1,0.2-1.4c0-0.4-0.1-0.7-0.2-1c-0.2-0.3-0.4-0.4-0.8-0.4
	c-0.5,0-0.9,0.1-1.3,0.3s-0.8,0.5-1.1,0.9c-0.3,0.4-0.6,0.8-0.8,1.3l-1.4,5.4c-0.1,0.2-0.2,0.3-0.3,0.5c-0.2,0.1-0.3,0.2-0.5,0.2
	c-0.2,0-0.3-0.1-0.4-0.2C460.8,344.8,460.7,344.6,460.7,344.5z"/>
<path class="st4" d="M371.5,373.8c-0.7-0.6-1.4-1.3-1.9-2c-0.5-0.8-1-1.6-1.3-2.4s-0.6-1.8-0.8-2.7s-0.3-1.9-0.3-2.8
	c0-1,0.1-1.9,0.3-2.8s0.4-1.8,0.8-2.7c0.3-0.9,0.8-1.7,1.3-2.4c0.5-0.8,1.2-1.4,1.9-2c0,0,0,0,0.1,0h0.2c0,0,0.1,0,0.1,0.1
	c0,0,0,0.1,0,0.1c0,0.1,0,0.1,0,0.1c-0.7,0.6-1.2,1.3-1.6,2.1c-0.4,0.7-0.8,1.5-1,2.3c-0.3,0.8-0.5,1.7-0.6,2.6
	c-0.1,0.9-0.2,1.8-0.2,2.8c0,4.2,1.1,7.5,3.4,9.7c0,0,0.1,0.1,0.1,0.2c0,0,0,0.1-0.1,0.1c0,0-0.1,0.1-0.1,0.1L371.5,373.8
	C371.5,373.8,371.5,373.8,371.5,373.8z"/>
<path class="st4" d="M376.6,366.8c0.2,0.5,0.6,0.9,1,1.2c0.4,0.3,0.9,0.5,1.4,0.5c0.7,0,1.3-0.2,1.7-0.6c0.4-0.4,0.7-0.9,0.9-1.5
	c0.2-0.6,0.3-1.2,0.3-1.9c0-1.1-0.1-2-0.4-2.6c-0.1-0.3-0.3-0.5-0.5-0.7c-0.2-0.2-0.5-0.4-0.8-0.5c-0.3-0.1-0.6-0.2-0.9-0.2
	c-0.5,0-1,0.1-1.5,0.4c-0.5,0.3-0.8,0.7-1.1,1.1V366.8z M375.2,368.8V357c0-0.4-0.1-0.6-0.2-0.8c-0.1-0.2-0.3-0.3-0.5-0.3
	s-0.5,0-0.9,0v-0.7l3-0.2v6.2c0.2-0.2,0.5-0.5,0.8-0.6s0.6-0.3,1-0.4c0.3-0.1,0.7-0.1,1-0.1c0.6,0,1.2,0.1,1.7,0.4
	c0.5,0.2,1,0.6,1.3,1c0.4,0.4,0.7,0.9,0.9,1.5c0.2,0.5,0.3,1.1,0.3,1.7c0,0.8-0.2,1.6-0.6,2.2c-0.4,0.7-0.9,1.3-1.6,1.7
	c-0.7,0.4-1.4,0.6-2.2,0.6c-0.5,0-1-0.1-1.5-0.4c-0.5-0.3-0.9-0.6-1.2-1l-0.7,1.2H375.2z"/>
<path class="st4" d="M385.5,373.8c-0.1,0-0.2-0.1-0.2-0.2c0-0.1,0-0.1,0-0.1c2.3-2.2,3.4-5.5,3.4-9.7c0-4.2-1.1-7.5-3.4-9.7
	c-0.1,0-0.1-0.1-0.1-0.2c0,0,0-0.1,0.1-0.1c0,0,0.1-0.1,0.1-0.1h0.2c0,0,0.1,0,0.1,0c1,0.8,1.8,1.7,2.4,2.8s1.1,2.2,1.4,3.5
	c0.3,1.2,0.4,2.5,0.4,3.8c0,0.9-0.1,1.9-0.2,2.8c-0.2,0.9-0.4,1.8-0.8,2.7c-0.3,0.9-0.8,1.7-1.3,2.5s-1.2,1.4-1.9,2c0,0-0.1,0-0.1,0
	H385.5z"/>
<path class="st4" d="M399.7,368.4c0-0.1,0-0.1,0-0.2l2.9-11.6c0.1-0.2,0.1-0.4,0.1-0.5c0-0.2-0.4-0.3-1.3-0.3
	c-0.1,0-0.2-0.1-0.2-0.3c0,0,0-0.1,0-0.2c0-0.1,0-0.2,0.1-0.2c0,0,0.1-0.1,0.1-0.1l2.7-0.2h0c0,0,0,0,0.1,0c0,0,0.1,0,0.1,0
	c0,0.1,0,0.1,0,0.2l-2.1,8.4c0.5-0.2,1.1-0.7,1.8-1.4c0.7-0.8,1.3-1.3,1.7-1.6c0.4-0.3,0.9-0.5,1.6-0.5c0.4,0,0.7,0.1,1,0.4
	c0.3,0.3,0.4,0.6,0.4,0.9c0,0.2,0,0.4-0.1,0.6c-0.1,0.2-0.2,0.4-0.4,0.5c-0.2,0.1-0.4,0.2-0.6,0.2c-0.2,0-0.4-0.1-0.5-0.2
	c-0.1-0.1-0.2-0.3-0.2-0.5c0-0.3,0.1-0.6,0.3-0.8c0.2-0.2,0.5-0.3,0.8-0.3c-0.1-0.2-0.3-0.3-0.6-0.3c-0.4,0-0.8,0.1-1.1,0.3
	c-0.4,0.2-0.8,0.6-1.2,1c-0.4,0.4-0.8,0.8-1.2,1.2c-0.3,0.4-0.7,0.6-1,0.8c0.8,0.1,1.5,0.3,2,0.6c0.6,0.3,0.9,0.8,0.9,1.5
	c0,0.1,0,0.3-0.1,0.5c-0.1,0.5-0.2,0.9-0.2,1.2c0,0.6,0.2,0.9,0.6,0.9c0.5,0,0.8-0.3,1.1-0.8s0.5-1.1,0.6-1.8c0-0.1,0.1-0.1,0.2-0.1
	h0.2c0.1,0,0.1,0,0.1,0.1c0,0,0.1,0.1,0.1,0.1c0,0,0,0,0,0c-0.5,2-1.3,3-2.3,3c-0.4,0-0.7-0.1-1-0.3c-0.3-0.2-0.5-0.4-0.7-0.7
	c-0.2-0.3-0.2-0.6-0.2-1c0-0.2,0-0.4,0.1-0.7c0-0.2,0.1-0.3,0.1-0.4c0-0.5-0.2-0.9-0.7-1.2c-0.5-0.3-1-0.4-1.6-0.5l-1,4.1
	c-0.1,0.2-0.2,0.4-0.3,0.5c-0.2,0.1-0.3,0.2-0.5,0.2c-0.2,0-0.3-0.1-0.4-0.2C399.8,368.7,399.7,368.6,399.7,368.4z"/>
<path class="st4" d="M416.7,362.3c-0.1,0-0.2,0-0.3-0.1c-0.1-0.1-0.1-0.2-0.1-0.3c0-0.1,0-0.2,0.1-0.3c0.1-0.1,0.2-0.1,0.3-0.1h12.6
	c0.1,0,0.2,0,0.2,0.1c0.1,0.1,0.1,0.2,0.1,0.3c0,0.1,0,0.2-0.1,0.3c-0.1,0.1-0.2,0.1-0.2,0.1H416.7z M416.7,366.2
	c-0.1,0-0.2,0-0.3-0.1c-0.1-0.1-0.1-0.2-0.1-0.3c0-0.1,0-0.2,0.1-0.3c0.1-0.1,0.2-0.1,0.3-0.1h12.6c0.1,0,0.2,0,0.2,0.1
	c0.1,0.1,0.1,0.2,0.1,0.3c0,0.1,0,0.2-0.1,0.3c-0.1,0.1-0.2,0.1-0.2,0.1H416.7z"/>
<path class="st4" d="M438.1,366.5c0.1,0.4,0.3,0.8,0.6,1.1c0.3,0.3,0.6,0.6,1,0.7c0.4,0.2,0.8,0.3,1.2,0.3c1,0,1.6-0.4,2-1.1
	c0.4-0.7,0.5-1.7,0.5-2.7c0-0.5,0-0.8,0-1.2c0-0.3-0.1-0.6-0.1-0.9c-0.1-0.5-0.3-0.9-0.7-1.2c-0.3-0.3-0.7-0.5-1.1-0.5
	c-0.4,0-0.8,0.1-1.2,0.2c-0.3,0.1-0.6,0.3-0.8,0.5c-0.2,0.2-0.4,0.4-0.5,0.6s-0.3,0.3-0.3,0.3h-0.2c0,0-0.1,0-0.1-0.1
	c0,0-0.1-0.1-0.1-0.1v-6.7c0,0,0-0.1,0.1-0.1c0,0,0.1-0.1,0.1-0.1h0.1c0.9,0.4,1.8,0.7,2.9,0.7c1,0,1.9-0.2,2.9-0.7h0.1
	c0.1,0,0.1,0,0.1,0.1c0,0,0.1,0.1,0.1,0.1v0.2c0,0.1,0,0.1,0,0.1c-0.5,0.6-1,1.1-1.7,1.4c-0.7,0.3-1.4,0.5-2.1,0.5
	c-0.5,0-1.1-0.1-1.6-0.2v3.8c0.4-0.4,0.8-0.6,1.2-0.8c0.3-0.2,0.8-0.2,1.3-0.2c0.7,0,1.4,0.2,2,0.6c0.6,0.4,1,1,1.3,1.7
	c0.3,0.7,0.5,1.4,0.5,2.1c0,0.8-0.2,1.5-0.6,2.2c-0.4,0.7-0.9,1.2-1.6,1.6c-0.7,0.4-1.4,0.6-2.2,0.6c-0.7,0-1.3-0.2-1.8-0.5
	c-0.6-0.3-1-0.8-1.3-1.4c-0.3-0.6-0.5-1.2-0.5-1.8c0-0.3,0.1-0.5,0.3-0.7c0.2-0.2,0.4-0.3,0.7-0.3c0.3,0,0.6,0.1,0.8,0.3
	c0.2,0.2,0.3,0.4,0.3,0.7c0,0.3-0.1,0.5-0.3,0.7c-0.2,0.2-0.4,0.3-0.8,0.3c0,0-0.1,0-0.1,0C438.2,366.5,438.1,366.5,438.1,366.5z"/>
<path class="st4" d="M451.4,368.7c0.7,0,1.3-0.4,1.7-1.1c0.4-0.8,0.6-1.6,0.7-2.5c0.1-0.9,0.1-1.9,0.1-3c0-1,0-1.9-0.1-2.8
	c-0.1-0.8-0.3-1.6-0.7-2.3c-0.4-0.7-0.9-1-1.7-1s-1.3,0.3-1.7,1c-0.4,0.7-0.6,1.5-0.7,2.3c-0.1,0.8-0.1,1.8-0.1,2.8
	c0,0.7,0,1.4,0.1,2.1c0,0.7,0.1,1.3,0.3,2c0.2,0.7,0.4,1.3,0.8,1.8C450.3,368.5,450.8,368.7,451.4,368.7z M451.4,369.2
	c-1.6,0-2.7-0.7-3.3-2c-0.6-1.3-0.9-2.9-0.9-4.8c0-1.2,0.1-2.2,0.3-3.3c0.2-1,0.6-1.9,1.3-2.6c0.6-0.7,1.5-1.1,2.6-1.1
	c0.9,0,1.6,0.2,2.2,0.6c0.6,0.4,1,1,1.3,1.7c0.3,0.7,0.5,1.4,0.6,2.2c0.1,0.8,0.2,1.6,0.2,2.4c0,1.1-0.1,2.2-0.3,3.2
	c-0.2,1-0.6,1.8-1.2,2.5C453.4,368.9,452.5,369.2,451.4,369.2z"/>
<path class="st4" d="M461.4,368.7c0.7,0,1.3-0.4,1.7-1.1c0.4-0.8,0.6-1.6,0.7-2.5c0.1-0.9,0.1-1.9,0.1-3c0-1,0-1.9-0.1-2.8
	c-0.1-0.8-0.3-1.6-0.7-2.3c-0.4-0.7-0.9-1-1.7-1s-1.3,0.3-1.7,1c-0.4,0.7-0.6,1.5-0.7,2.3c-0.1,0.8-0.1,1.8-0.1,2.8
	c0,0.7,0,1.4,0.1,2.1c0,0.7,0.1,1.3,0.3,2c0.2,0.7,0.4,1.3,0.8,1.8C460.3,368.5,460.8,368.7,461.4,368.7z M461.4,369.2
	c-1.6,0-2.7-0.7-3.3-2c-0.6-1.3-0.9-2.9-0.9-4.8c0-1.2,0.1-2.2,0.3-3.3c0.2-1,0.6-1.9,1.3-2.6c0.6-0.7,1.5-1.1,2.6-1.1
	c0.9,0,1.6,0.2,2.2,0.6c0.6,0.4,1,1,1.3,1.7c0.3,0.7,0.5,1.4,0.6,2.2c0.1,0.8,0.2,1.6,0.2,2.4c0,1.1-0.1,2.2-0.3,3.2
	c-0.2,1-0.6,1.8-1.2,2.5C463.4,368.9,462.5,369.2,461.4,369.2z"/>
<path class="st4" d="M471.4,368.7c0.7,0,1.3-0.4,1.7-1.1c0.4-0.8,0.6-1.6,0.7-2.5c0.1-0.9,0.1-1.9,0.1-3c0-1,0-1.9-0.1-2.8
	c-0.1-0.8-0.3-1.6-0.7-2.3c-0.4-0.7-0.9-1-1.7-1s-1.3,0.3-1.7,1c-0.4,0.7-0.6,1.5-0.7,2.3c-0.1,0.8-0.1,1.8-0.1,2.8
	c0,0.7,0,1.4,0.1,2.1c0,0.7,0.1,1.3,0.3,2c0.2,0.7,0.4,1.3,0.8,1.8C470.3,368.5,470.8,368.7,471.4,368.7z M471.4,369.2
	c-1.6,0-2.7-0.7-3.3-2c-0.6-1.3-0.9-2.9-0.9-4.8c0-1.2,0.1-2.2,0.3-3.3c0.2-1,0.6-1.9,1.3-2.6c0.6-0.7,1.5-1.1,2.6-1.1
	c0.9,0,1.6,0.2,2.2,0.6c0.6,0.4,1,1,1.3,1.7c0.3,0.7,0.5,1.4,0.6,2.2c0.1,0.8,0.2,1.6,0.2,2.4c0,1.1-0.1,2.2-0.3,3.2
	c-0.2,1-0.6,1.8-1.2,2.5C473.4,368.9,472.5,369.2,471.4,369.2z"/>
<path class="st4" d="M478.3,372.4c0-0.1,0-0.1,0.1-0.2c0.5-0.5,0.9-1,1.1-1.6s0.4-1.2,0.4-1.9v-0.2c-0.2,0.2-0.5,0.3-0.8,0.3
	c-0.3,0-0.6-0.1-0.8-0.3c-0.2-0.2-0.3-0.5-0.3-0.8s0.1-0.6,0.3-0.8c0.2-0.2,0.5-0.3,0.8-0.3c0.5,0,0.8,0.2,1,0.7
	c0.2,0.4,0.3,0.9,0.3,1.5c0,0.7-0.1,1.4-0.4,2.1c-0.3,0.7-0.7,1.3-1.3,1.8c-0.1,0-0.1,0-0.1,0c-0.1,0-0.1,0-0.2-0.1
	C478.4,372.5,478.3,372.5,478.3,372.4z"/>
<path class="st4" d="M493.5,368.5c0-0.1,0-0.1,0-0.2l1.5-6c0.1-0.4,0.1-0.7,0.1-1c0-0.6-0.2-0.9-0.6-0.9c-0.4,0-0.7,0.2-0.9,0.8
	s-0.4,1.1-0.6,1.9c0,0,0,0.1-0.1,0.1c0,0-0.1,0-0.1,0h-0.2c0,0-0.1,0-0.1-0.1c0,0-0.1-0.1-0.1-0.1c0.1-0.6,0.3-1.1,0.4-1.5
	c0.1-0.4,0.3-0.8,0.6-1.1c0.3-0.3,0.6-0.5,1.1-0.5c0.5,0,0.9,0.2,1.3,0.5c0.4,0.3,0.6,0.7,0.6,1.2c0.4-0.5,0.9-0.9,1.4-1.2
	c0.5-0.3,1.1-0.5,1.7-0.5c0.5,0,0.9,0.1,1.2,0.2c0.3,0.2,0.6,0.4,0.8,0.7c0.2,0.3,0.3,0.7,0.3,1.2c0,0.6-0.1,1.2-0.4,2
	c-0.2,0.8-0.5,1.6-0.9,2.6c-0.2,0.4-0.3,0.8-0.3,1.2c0,0.4,0.2,0.6,0.5,0.6c0.5,0,1-0.3,1.3-0.8c0.3-0.6,0.6-1.2,0.7-1.8
	c0-0.1,0.1-0.1,0.2-0.1h0.2c0.1,0,0.1,0,0.1,0.1c0,0,0.1,0.1,0.1,0.1c0,0,0,0,0,0c-0.2,0.8-0.5,1.5-1,2.1c-0.5,0.6-1,1-1.7,1
	c-0.5,0-0.9-0.2-1.2-0.5c-0.3-0.3-0.5-0.7-0.5-1.2c0-0.2,0.1-0.5,0.2-0.8c0.2-0.4,0.4-1,0.6-1.6c0.2-0.6,0.4-1.2,0.5-1.7
	c0.1-0.6,0.2-1,0.2-1.5c0-0.4-0.1-0.7-0.2-1c-0.2-0.3-0.4-0.4-0.8-0.4c-0.5,0-0.9,0.1-1.3,0.3s-0.8,0.5-1.1,0.9
	c-0.3,0.4-0.6,0.8-0.8,1.3l-1.4,5.4c-0.1,0.2-0.2,0.3-0.3,0.5c-0.2,0.1-0.3,0.2-0.5,0.2c-0.2,0-0.3-0.1-0.4-0.2
	C493.5,368.8,493.5,368.6,493.5,368.5z"/>
<path class="st4" d="M511,362.3c-0.1,0-0.2,0-0.3-0.1c-0.1-0.1-0.1-0.2-0.1-0.3c0-0.1,0-0.2,0.1-0.3c0.1-0.1,0.2-0.1,0.3-0.1h12.6
	c0.1,0,0.2,0,0.2,0.1c0.1,0.1,0.1,0.2,0.1,0.3c0,0.1,0,0.2-0.1,0.3c-0.1,0.1-0.2,0.1-0.2,0.1H511z M511,366.2c-0.1,0-0.2,0-0.3-0.1
	c-0.1-0.1-0.1-0.2-0.1-0.3c0-0.1,0-0.2,0.1-0.3c0.1-0.1,0.2-0.1,0.3-0.1h12.6c0.1,0,0.2,0,0.2,0.1c0.1,0.1,0.1,0.2,0.1,0.3
	c0,0.1,0,0.2-0.1,0.3c-0.1,0.1-0.2,0.1-0.2,0.1H511z"/>
<path class="st4" d="M532.3,366.5c0.1,0.4,0.3,0.8,0.6,1.1c0.3,0.3,0.6,0.6,1,0.7c0.4,0.2,0.8,0.3,1.2,0.3c1,0,1.6-0.4,2-1.1
	c0.4-0.7,0.5-1.7,0.5-2.7c0-0.5,0-0.8,0-1.2c0-0.3-0.1-0.6-0.1-0.9c-0.1-0.5-0.3-0.9-0.7-1.2c-0.3-0.3-0.7-0.5-1.1-0.5
	c-0.4,0-0.8,0.1-1.2,0.2c-0.3,0.1-0.6,0.3-0.8,0.5c-0.2,0.2-0.4,0.4-0.5,0.6s-0.3,0.3-0.3,0.3h-0.2c0,0-0.1,0-0.1-0.1
	c0,0-0.1-0.1-0.1-0.1v-6.7c0,0,0-0.1,0.1-0.1c0,0,0.1-0.1,0.1-0.1h0.1c0.9,0.4,1.8,0.7,2.9,0.7c1,0,1.9-0.2,2.9-0.7h0.1
	c0.1,0,0.1,0,0.1,0.1c0,0,0.1,0.1,0.1,0.1v0.2c0,0.1,0,0.1,0,0.1c-0.5,0.6-1,1.1-1.7,1.4c-0.7,0.3-1.4,0.5-2.1,0.5
	c-0.5,0-1.1-0.1-1.6-0.2v3.8c0.4-0.4,0.8-0.6,1.2-0.8c0.3-0.2,0.8-0.2,1.3-0.2c0.7,0,1.4,0.2,2,0.6c0.6,0.4,1,1,1.3,1.7
	c0.3,0.7,0.5,1.4,0.5,2.1c0,0.8-0.2,1.5-0.6,2.2c-0.4,0.7-0.9,1.2-1.6,1.6c-0.7,0.4-1.4,0.6-2.2,0.6c-0.7,0-1.3-0.2-1.8-0.5
	c-0.6-0.3-1-0.8-1.3-1.4c-0.3-0.6-0.5-1.2-0.5-1.8c0-0.3,0.1-0.5,0.3-0.7c0.2-0.2,0.4-0.3,0.7-0.3c0.3,0,0.6,0.1,0.8,0.3
	c0.2,0.2,0.3,0.4,0.3,0.7c0,0.3-0.1,0.5-0.3,0.7c-0.2,0.2-0.4,0.3-0.8,0.3c0,0-0.1,0-0.1,0C532.4,366.5,532.3,366.5,532.3,366.5z"/>
<path class="st4" d="M545.6,368.7c0.7,0,1.3-0.4,1.7-1.1c0.4-0.8,0.6-1.6,0.7-2.5c0.1-0.9,0.1-1.9,0.1-3c0-1,0-1.9-0.1-2.8
	c-0.1-0.8-0.3-1.6-0.7-2.3c-0.4-0.7-0.9-1-1.7-1s-1.3,0.3-1.7,1s-0.6,1.5-0.7,2.3s-0.1,1.8-0.1,2.8c0,0.7,0,1.4,0.1,2.1
	c0,0.7,0.1,1.3,0.3,2c0.2,0.7,0.4,1.3,0.8,1.8C544.5,368.5,545,368.7,545.6,368.7z M545.6,369.2c-1.6,0-2.7-0.7-3.3-2
	s-0.9-2.9-0.9-4.8c0-1.2,0.1-2.2,0.3-3.3c0.2-1,0.6-1.9,1.3-2.6c0.6-0.7,1.5-1.1,2.6-1.1c0.9,0,1.6,0.2,2.2,0.6c0.6,0.4,1,1,1.3,1.7
	c0.3,0.7,0.5,1.4,0.6,2.2c0.1,0.8,0.2,1.6,0.2,2.4c0,1.1-0.1,2.2-0.3,3.2s-0.6,1.8-1.2,2.5C547.6,368.9,546.7,369.2,545.6,369.2z"/>
<path class="st4" d="M555.6,368.7c0.7,0,1.3-0.4,1.7-1.1c0.4-0.8,0.6-1.6,0.7-2.5c0.1-0.9,0.1-1.9,0.1-3c0-1,0-1.9-0.1-2.8
	c-0.1-0.8-0.3-1.6-0.7-2.3c-0.4-0.7-0.9-1-1.7-1s-1.3,0.3-1.7,1c-0.4,0.7-0.6,1.5-0.7,2.3c-0.1,0.8-0.1,1.8-0.1,2.8
	c0,0.7,0,1.4,0.1,2.1c0,0.7,0.1,1.3,0.3,2c0.2,0.7,0.4,1.3,0.8,1.8C554.5,368.5,555,368.7,555.6,368.7z M555.6,369.2
	c-1.6,0-2.7-0.7-3.3-2c-0.6-1.3-0.9-2.9-0.9-4.8c0-1.2,0.1-2.2,0.3-3.3c0.2-1,0.6-1.9,1.3-2.6c0.6-0.7,1.5-1.1,2.6-1.1
	c0.9,0,1.6,0.2,2.2,0.6c0.6,0.4,1,1,1.3,1.7c0.3,0.7,0.5,1.4,0.6,2.2c0.1,0.8,0.2,1.6,0.2,2.4c0,1.1-0.1,2.2-0.3,3.2
	c-0.2,1-0.6,1.8-1.2,2.5C557.6,368.9,556.7,369.2,555.6,369.2z"/>
<path class="st4" d="M565.6,368.7c0.7,0,1.3-0.4,1.7-1.1c0.4-0.8,0.6-1.6,0.7-2.5c0.1-0.9,0.1-1.9,0.1-3c0-1,0-1.9-0.1-2.8
	c-0.1-0.8-0.3-1.6-0.7-2.3c-0.4-0.7-0.9-1-1.7-1s-1.3,0.3-1.7,1s-0.6,1.5-0.7,2.3s-0.1,1.8-0.1,2.8c0,0.7,0,1.4,0.1,2.1
	c0,0.7,0.1,1.3,0.3,2c0.2,0.7,0.4,1.3,0.8,1.8C564.5,368.5,565,368.7,565.6,368.7z M565.6,369.2c-1.6,0-2.7-0.7-3.3-2
	s-0.9-2.9-0.9-4.8c0-1.2,0.1-2.2,0.3-3.3c0.2-1,0.6-1.9,1.3-2.6c0.6-0.7,1.5-1.1,2.6-1.1c0.9,0,1.6,0.2,2.2,0.6c0.6,0.4,1,1,1.3,1.7
	c0.3,0.7,0.5,1.4,0.6,2.2c0.1,0.8,0.2,1.6,0.2,2.4c0,1.1-0.1,2.2-0.3,3.2s-0.6,1.8-1.2,2.5C567.6,368.9,566.7,369.2,565.6,369.2z"/>
<line class="st3" x1="351.9" y1="307.7" x2="351.9" y2="75.7"/>
<line class="st3" x1="583.9" y1="307.7" x2="583.9" y2="75.7"/>
<line class="st3" x1="351.9" y1="307.7" x2="354.3" y2="307.7"/>
<line class="st3" x1="351.9" y1="272.5" x2="354.3" y2="272.5"/>
<line class="st3" x1="351.9" y1="237.4" x2="354.3" y2="237.4"/>
<line class="st3" x1="351.9" y1="202.2" x2="354.3" y2="202.2"/>
<line class="st3" x1="351.9" y1="167.1" x2="354.3" y2="167.1"/>
<line class="st3" x1="351.9" y1="131.9" x2="354.3" y2="131.9"/>
<line class="st3" x1="351.9" y1="96.8" x2="354.3" y2="96.8"/>
<line class="st3" x1="583.9" y1="307.7" x2="581.6" y2="307.7"/>
<line class="st3" x1="583.9" y1="272.5" x2="581.6" y2="272.5"/>
<line class="st3" x1="583.9" y1="237.4" x2="581.6" y2="237.4"/>
<line class="st3" x1="583.9" y1="202.2" x2="581.6" y2="202.2"/>
<line class="st3" x1="583.9" y1="167.1" x2="581.6" y2="167.1"/>
<line class="st3" x1="583.9" y1="131.9" x2="581.6" y2="131.9"/>
<line class="st3" x1="583.9" y1="96.8" x2="581.6" y2="96.8"/>
<text transform="matrix(1 0 0 1 337.9475 313.1972)" class="st4 st5 st6">0</text>
<text transform="matrix(1 0 0 1 337.9475 278.0457)" class="st4 st5 st6">2</text>
<text transform="matrix(1 0 0 1 337.9475 242.8942)" class="st4 st5 st6">4</text>
<text transform="matrix(1 0 0 1 337.9475 207.7427)" class="st4 st5 st6">6</text>
<text transform="matrix(1 0 0 1 337.9475 172.5912)" class="st4 st5 st6">8</text>
<text transform="matrix(1 0 0 1 329.9475 137.4397)" class="st4 st5 st6">10</text>
<text transform="matrix(1 0 0 1 329.9475 102.2881)" class="st4 st5 st6">12</text>
<text transform="matrix(0 -1 1 0 321.9478 222.6973)" class="st4 st5 st8">Tflop/s</text>
<polyline class="st9" points="351.9,226.1 375.5,179.9 398.8,130.7 422,96.8 445.2,96.8 468.3,96.8 491.5,96.8 514.6,96.8 
	537.7,96.8 560.8,96.8 583.9,96.8 "/>
<polyline class="st10" points="351.9,288.5 375.5,267.5 398.8,238.6 422,206.3 445.2,175.1 468.3,150.6 491.5,167.2 514.6,143.4 
	537.7,129.2 560.8,123.8 583.9,125.4 "/>
<path class="st11" d="M354.9,288.5c0-1.7-1.3-3-3-3c-1.7,0-3,1.3-3,3c0,1.7,1.3,3,3,3C353.6,291.5,354.9,290.2,354.9,288.5"/>
<path class="st11" d="M378.5,267.5c0-1.7-1.3-3-3-3c-1.7,0-3,1.3-3,3c0,1.7,1.3,3,3,3C377.1,270.5,378.5,269.1,378.5,267.5"/>
<path class="st11" d="M401.8,238.6c0-1.7-1.3-3-3-3c-1.7,0-3,1.3-3,3c0,1.7,1.3,3,3,3C400.4,241.6,401.8,240.3,401.8,238.6"/>
<path class="st11" d="M425,206.3c0-1.7-1.3-3-3-3c-1.7,0-3,1.3-3,3c0,1.7,1.3,3,3,3C423.7,209.3,425,208,425,206.3"/>
<path class="st11" d="M448.2,175.1c0-1.7-1.3-3-3-3c-1.7,0-3,1.3-3,3c0,1.7,1.3,3,3,3C446.8,178.1,448.2,176.7,448.2,175.1"/>
<path class="st11" d="M471.3,150.6c0-1.7-1.3-3-3-3c-1.7,0-3,1.3-3,3c0,1.7,1.3,3,3,3C470,153.6,471.3,152.3,471.3,150.6"/>
<path class="st11" d="M494.5,167.2c0-1.7-1.3-3-3-3c-1.7,0-3,1.3-3,3c0,1.7,1.3,3,3,3C493.1,170.2,494.5,168.9,494.5,167.2"/>
<path class="st11" d="M517.6,143.4c0-1.7-1.3-3-3-3c-1.7,0-3,1.3-3,3c0,1.7,1.3,3,3,3C516.2,146.4,517.6,145,517.6,143.4"/>
<path class="st11" d="M540.7,129.2c0-1.7-1.3-3-3-3c-1.7,0-3,1.3-3,3c0,1.7,1.3,3,3,3C539.4,132.2,540.7,130.9,540.7,129.2"/>
<path class="st11" d="M563.8,123.8c0-1.7-1.3-3-3-3c-1.7,0-3,1.3-3,3c0,1.7,1.3,3,3,3C562.5,126.8,563.8,125.4,563.8,123.8"/>
<path class="st11" d="M586.9,125.4c0-1.7-1.3-3-3-3c-1.7,0-3,1.3-3,3c0,1.7,1.3,3,3,3C585.6,128.4,586.9,127,586.9,125.4"/>
<polyline class="st12" points="351.9,293.5 375.5,284.7 398.8,275.6 422,251.4 445.2,227.3 468.3,212.6 491.5,183.1 514.6,166 
	537.7,153.5 560.8,151 583.9,154.1 "/>
<path class="st13" d="M349.8,295.6l4.2-4.2 M349.8,291.4l4.2,4.2 M348.9,293.5h6 M351.9,290.5v6"/>
<path class="st13" d="M373.3,286.8l4.2-4.2 M373.3,282.6l4.2,4.2 M372.5,284.7h6 M375.5,281.7v6"/>
<path class="st13" d="M396.7,277.8l4.2-4.2 M396.7,273.5l4.2,4.2 M395.8,275.6h6 M398.8,272.6v6"/>
<path class="st13" d="M419.9,253.5l4.2-4.2 M419.9,249.3l4.2,4.2 M419,251.4h6 M422,248.4v6"/>
<path class="st13" d="M443.1,229.4l4.2-4.2 M443.1,225.2l4.2,4.2 M442.2,227.3h6 M445.2,224.3v6"/>
<path class="st13" d="M466.2,214.7l4.2-4.2 M466.2,210.5l4.2,4.2 M465.3,212.6h6 M468.3,209.6v6"/>
<path class="st13" d="M489.3,185.2l4.2-4.2 M489.3,181l4.2,4.2 M488.5,183.1h6 M491.5,180.1v6"/>
<path class="st13" d="M512.5,168.1l4.2-4.2 M512.5,163.9l4.2,4.2 M511.6,166h6 M514.6,163v6"/>
<path class="st13" d="M535.6,155.6l4.2-4.2 M535.6,151.3l4.2,4.2 M534.7,153.5h6 M537.7,150.5v6"/>
<path class="st13" d="M558.7,153.1l4.2-4.2 M558.7,148.9l4.2,4.2 M557.8,151h6 M560.8,148v6"/>
<path class="st13" d="M581.8,156.2l4.2-4.2 M581.8,152l4.2,4.2 M580.9,154.1h6 M583.9,151.1v6"/>
<polyline class="st14" points="351.9,296 375.5,290.9 398.8,283.6 422,291.6 445.2,292.5 468.3,291 491.5,290.4 514.6,290.7 
	537.7,298.1 560.8,298.6 583.9,298.8 "/>
<path class="st15" d="M349.8,298.1l4.2-4.2 M349.8,293.9l4.2,4.2"/>
<path class="st15" d="M373.3,293.1l4.2-4.2 M373.3,288.8l4.2,4.2"/>
<path class="st15" d="M396.7,285.7l4.2-4.2 M396.7,281.5l4.2,4.2"/>
<path class="st15" d="M419.9,293.7l4.2-4.2 M419.9,289.5l4.2,4.2"/>
<path class="st15" d="M443.1,294.6l4.2-4.2 M443.1,290.3l4.2,4.2"/>
<path class="st15" d="M466.2,293.2l4.2-4.2 M466.2,288.9l4.2,4.2"/>
<path class="st15" d="M489.3,292.5l4.2-4.2 M489.3,288.3l4.2,4.2"/>
<path class="st15" d="M512.5,292.9l4.2-4.2 M512.5,288.6l4.2,4.2"/>
<path class="st15" d="M535.6,300.2l4.2-4.2 M535.6,295.9l4.2,4.2"/>
<path class="st15" d="M558.7,300.7l4.2-4.2 M558.7,296.5l4.2,4.2"/>
<path class="st15" d="M581.8,301l4.2-4.2 M581.8,296.7l4.2,4.2"/>
<polyline class="st16" points="351.9,286.4 375.5,278 398.8,273.5 422,272 445.2,271.4 468.3,270.9 491.5,271.6 514.6,271 
	537.7,270.9 560.8,271 583.9,270.9 "/>
<rect x="349.9" y="284.4" class="st17" width="4" height="4"/>
<rect x="373.5" y="276" class="st17" width="4" height="4"/>
<rect x="396.8" y="271.5" class="st17" width="4" height="4"/>
<rect x="420" y="270" class="st17" width="4" height="4"/>
<rect x="443.2" y="269.4" class="st17" width="4" height="4"/>
<rect x="466.3" y="268.9" class="st17" width="4" height="4"/>
<rect x="489.5" y="269.6" class="st17" width="4" height="4"/>
<rect x="512.6" y="269" class="st17" width="4" height="4"/>
<rect x="535.7" y="268.9" class="st17" width="4" height="4"/>
<rect x="558.8" y="269" class="st17" width="4" height="4"/>
<rect x="581.9" y="268.9" class="st17" width="4" height="4"/>
<polyline class="st18" points="351.9,306.3 375.5,266.2 398.8,244.8 422,236.4 445.2,210.9 468.3,205.1 491.5,192.4 514.6,191.6 
	537.7,192.9 "/>
<path class="st19" d="M348.9,306.3h6 M351.9,303.3v6"/>
<path class="st19" d="M372.5,266.2h6 M375.5,263.2v6"/>
<path class="st19" d="M395.8,244.8h6 M398.8,241.8v6"/>
<path class="st19" d="M419,236.4h6 M422,233.4v6"/>
<path class="st19" d="M442.2,210.9h6 M445.2,207.9v6"/>
<path class="st19" d="M465.3,205.1h6 M468.3,202.1v6"/>
<path class="st19" d="M488.5,192.4h6 M491.5,189.4v6"/>
<path class="st19" d="M511.6,191.6h6 M514.6,188.6v6"/>
<path class="st19" d="M534.7,192.9h6 M537.7,189.9v6"/>
<text transform="matrix(1 0 0 1 100.6975 26.6973)" class="st5 st6">roofline</text>
<line class="st9" x1="67.7" y1="21.2" x2="97.7" y2="21.2"/>
<text transform="matrix(1 0 0 1 100.6975 45.1973)" class="st5 st6">1D tile GEMM (hand-coded)</text>
<line class="st10" x1="67.7" y1="39.7" x2="97.7" y2="39.7"/>
<path class="st11" d="M85.7,39.7c0-1.7-1.3-3-3-3s-3,1.3-3,3c0,1.7,1.3,3,3,3S85.7,41.4,85.7,39.7"/>
<text transform="matrix(1 0 0 1 100.6975 63.6973)" class="st5 st6">cuBLAS-XT, pinned memory, 1D</text>
<line class="st12" x1="67.7" y1="58.2" x2="97.7" y2="58.2"/>
<path class="st13" d="M80.6,60.3l4.2-4.2 M80.6,56.1l4.2,4.2 M79.7,58.2h6 M82.7,55.2v6"/>
<text transform="matrix(1 0 0 1 360.6975 26.1973)" class="st5 st6">cuBLAS-XT, UMA, 1D</text>
<line class="st14" x1="327.7" y1="20.7" x2="357.7" y2="20.7"/>
<path class="st15" d="M340.6,22.8l4.2-4.2 M340.6,18.6l4.2,4.2"/>
<text transform="matrix(1 0 0 1 360.6975 44.6973)" class="st5 st6">cuBLAS-XT, pinned memory, 2D</text>
<line class="st16" x1="327.7" y1="39.2" x2="357.7" y2="39.2"/>
<rect x="340.7" y="37.2" class="st17" width="4" height="4"/>
<text transform="matrix(1 0 0 1 360.6975 63.1973)" class="st5 st6">BLASX</text>
<line class="st18" x1="327.7" y1="57.7" x2="357.7" y2="57.7"/>
<path class="st19" d="M339.7,57.7h6 M342.7,54.7v6"/>
<rect x="54.5" y="7.8" class="st20" width="528.7" height="60.9"/>
</svg>
